BST 260 Final Project: Cleaning Physician Compare National Data File
…
rm(gradyr) # removing after use to save space

Calculate the proportion of EHR use by State.

EHR_bystate <- dat %>% 
  group_by(State) %>% 
  summarize(EHR_count = sum(Used.electronic.health.records == 'Y'), total = n(), 
            EHR_prop = EHR_count/total)
EHR_bystate

## # A tibble: 55 x 4
##     State EHR_count  total   EHR_prop
##    <fctr>     <int>  <int>      <dbl>
##  1     AK       469   5715 0.08206474
##  2     AL      4980  24157 0.20615143
##  3     AR      3624  16506 0.21955652
##  4     AZ      7841  53172 0.14746483
##  5     CA     37554 194293 0.19328540
##  6     CO      8951  44292 0.20209067
##  7     CT      5612  28052 0.20005704
##  8     DC      1377   6074 0.22670398
##  9     DE      2189   9615 0.22766511
## 10     FL     29943 123961 0.24155178
## # ... with 45 more rows
…
rm(EHR_bystate)

Calculate the percentage of EHR use by Primary Specialty and by State.  consider filterning out n() < 50 or 100?

EHR_primspec_bystate <- dat %>% 
  filter(!is.na(Graduation.year)) %>% 
  group_by(State, Primary.specialty) %>% 
  summarize(EHR_count = sum(Used.electronic.health.records == 'Y'), total = n(), EHR_percent = EHR_count/total * 100) %>% 
  mutate(Primary.specialty = reorder(Primary.specialty, EHR_percent))
EHR_primspec_bystate

## # A tibble: 3,907 x 5
## # Groups:   State [55]
##     State                      Primary.specialty EHR_count total
##    <fctr>                                 <fctr>     <int> <int>
##  1     AK                     ADDICTION MEDICINE         0     8
##  2     AK                     ALLERGY/IMMUNOLOGY         2    15
##  3     AK                         ANESTHESIOLOGY         6   180
##  4     AK                            AUDIOLOGIST         0    42
##  5     AK              CARDIAC ELECTROPHYSIOLOGY         2    14
##  6     AK                        CARDIAC SURGERY         0     4
##  7     AK    CARDIOVASCULAR DISEASE (CARDIOLOGY)        45   105
##  8     AK                CERTIFIED NURSE MIDWIFE         0    48
##  9     AK CERTIFIED REGISTERED NURSE ANESTHETIST         0   104
## 10     AK                           CHIROPRACTIC        12   259
## # ... with 3,897 more rows, and 1 more variables: EHR_percent <dbl>
…
